…
Looking at this data, we might want to know how many different species
there are in each of the Vancouver neighbourhoods. We can find this out
with the **group_then_sumz** function.

``` r
group_then_sumz(vancouver_trees, neighbourhood_name, species_name)
#> # A tibble: 22 × 2
#>    neighbourhood_name       n_distinct
#>    <chr>                         <int>
#>  1 HASTINGS-SUNRISE                176
#>  2 KITSILANO                       171
#>  3 RENFREW-COLLINGWOOD             170
#>  4 DUNBAR-SOUTHLANDS               161
#>  5 KENSINGTON-CEDAR COTTAGE        159
#>  6 RILEY PARK                      154
#>  7 SHAUGHNESSY                     150
#>  8 SUNSET                          147
#>  9 GRANDVIEW-WOODLAND              146
#> 10 MARPOLE                         139
#> # ℹ 12 more rows
```
…
